{
  "page":1,
  "total_results":184,
  "total_pages":10,
  "results":[
    {
      "popularity":110.934,
      "vote_count":9284,
      "video":false,
      "poster_path":"/qa6HCwP4Z15l3hpsASz3auugEW6.jpg",
      "id":920,
      "adult":false,
      "backdrop_path":"/sd4xN5xi8tKRPrJOWwNiZEile7f.jpg",
      "original_language":"en",
      "original_title":"Cars",
      "genre_ids":[
        12,
        16,
        35,
        10751
      ],
      "title":"Cars",
      "vote_average":6.8,
      "overview":"Lightning McQueen, a hotshot rookie race car driven to succeed, discovers that life is about the journey, not the finish line, when he finds himself unexpectedly detoured in the sleepy Route 66 town of Radiator Springs. On route across the country to the big Piston Cup Championship in California to compete against two seasoned pros, McQueen gets to know the town's offbeat characters.",
      "release_date":"2006-06-08"
    },
    {
      "popularity":22.003,
      "vote_count":3228,
      "video":false,
      "poster_path":"/fyy1nDC8wm553FCiBDojkJmKLCs.jpg",
      "id":260514,
      "adult":false,
      "backdrop_path":"/rND0GSv8X2Zzs7VhyFAs9BCEmYE.jpg",
      "original_language":"en",
      "original_title":"Cars 3",
      "genre_ids":[
        12,
        16,
        35,
        10751
      ],
      "title":"Cars 3",
      "vote_average":6.7,
      "overview":"Blindsided by a new generation of blazing-fast racers, the legendary Lightning McQueen is suddenly pushed out of the sport he loves. To get back in the game, he will need the help of an eager young race technician with her own plan to win, inspiration from the late Fabulous Hudson Hornet, and a few unexpected turns. Proving that #95 isn't through yet will test the heart of a champion on Piston Cup Racing’s biggest stage!",
      "release_date":"2017-06-15"
    },
    {
      "popularity":21.184,
      "vote_count":4842,
      "video":false,
      "poster_path":"/okIz1HyxeVOMzYwwHUjH2pHi74I.jpg",
      "id":49013,
      "adult":false,
      "backdrop_path":"/robYRZk9LxJTwD7GlZCginji5k.jpg",
      "original_language":"en",
      "original_title":"Cars 2",
      "genre_ids":[
        12,
        16,
        35,
        10751
      ],
      "title":"Cars 2",
      "vote_average":5.9,
      "overview":"Star race car Lightning McQueen and his pal Mater head overseas to compete in the World Grand Prix race. But the road to the championship becomes rocky as Mater gets caught up in an intriguing adventure of his own: international espionage.",
      "release_date":"2011-06-11"
    },
    {
      "popularity":9.892,
      "vote_count":118,
      "video":false,
      "poster_path":"/h9hqesyEBaag8ZkgrBSaUGgGNFF.jpg",
      "id":14475,
      "adult":false,
      "backdrop_path":null,
      "original_language":"en",
      "original_title":"Used Cars",
      "genre_ids":[
        28,
        35
      ],
      "title":"Used Cars",
      "vote_average":6.4,
      "overview":"When the owner of a struggling used car lot is killed, it's up to the lot's hot-shot salesman to save the property from falling into the hands of the owner's ruthless brother and used-car rival.",
      "release_date":"1980-07-11"
    },
    {
      "popularity":12.38,
      "vote_count":262,
      "video":false,
      "poster_path":"/lz8FCZAzfr2gzju6YM4s7UCZugL.jpg",
      "id":11091,
      "adult":false,
      "backdrop_path":null,
      "original_language":"en",
      "original_title":"Riding in Cars with Boys",
      "genre_ids":[
        35,
        18,
        10749
      ],
      "title":"Riding in Cars with Boys",
      "vote_average":6.5,
      "overview":"A single mother, with dreams of becoming a writer, has a son at the age of 15 in 1965, and goes through a failed marriage with the drug-addicted father.",
      "release_date":"2001-10-19"
    },
    {
      "popularity":3.562,
      "vote_count":22,
      "video":false,
      "poster_path":"/8gQrJqQXksT9RCPbmd8AFQtx7vT.jpg",
      "id":345874,
      "adult":false,
      "backdrop_path":"/iW6UkAjXNvwfHYhsNJP0nRNqetv.jpg",
      "original_language":"en",
      "original_title":"Stealing Cars",
      "genre_ids":[
        18
      ],
      "title":"Stealing Cars",
      "vote_average":6.3,
      "overview":"A rebellious teenager navigates his way through the juvenile court system.",
      "release_date":"2016-04-05"
    },
    {
      "popularity":5.454,
      "id":438788,
      "video":true,
      "vote_count":46,
      "vote_average":6,
      "title":"Cars Toon Mater's Tall Tales",
      "release_date":"2008-11-01",
      "original_language":"en",
      "original_title":"Cars Toon Mater's Tall Tales",
      "genre_ids":[
        16,
        35,
        10751
      ],
      "backdrop_path":"/u9Hm0dZgzdGBUugMjBShyIDxRhN.jpg",
      "adult":false,
      "overview":"Mater the tow truck travels from country to country as he retells his infamous but unbelievable stories.",
      "poster_path":"/9WjtWqShmd76jENZ5on6Roy2WyW.jpg"
    },
    {
      "popularity":3.762,
      "id":27491,
      "video":false,
      "vote_count":1,
      "vote_average":9,
      "title":"Clarkson's Top 100 Cars",
      "release_date":"2001-11-19",
      "original_language":"en",
      "original_title":"Clarkson's Top 100 Cars",
      "genre_ids":[
        99
      ],
      "backdrop_path":"/lj8oWxa03y0knflxA7fSoBGAmcs.jpg",
      "adult":false,
      "overview":"No overview found.",
      "poster_path":"/bRFbWJwsPgvyYFkxqTOue0oY61S.jpg"
    },
    {
      "popularity":2.474,
      "id":51896,
      "video":false,
      "vote_count":22,
      "vote_average":6.8,
      "title":"Two Cars, One Night",
      "release_date":"2004-06-09",
      "original_language":"en",
      "original_title":"Two Cars, One Night",
      "genre_ids":[
        18,
        35
      ],
      "backdrop_path":"/j5SWztnnNERAqvA19tyl6Tm7eAJ.jpg",
      "adult":false,
      "overview":"Sometimes first love is found in the most unlikely of places, like in the carpark outside the Te Kaha pub.",
      "poster_path":"/3DmR3jZ9BOXsbzmeUQGAWhkempB.jpg"
    },
    {
      "popularity":1.961,
      "vote_count":4,
      "video":false,
      "poster_path":"/ulebuzTwzPgRLMxOTcrFrARgI9K.jpg",
      "id":38338,
      "adult":false,
      "backdrop_path":"/f5V4xruQ32iQtYJ0WqnD5nHmXXK.jpg",
      "original_language":"en",
      "original_title":"Hot Cars",
      "genre_ids":[
        28,
        53
      ],
      "title":"Hot Cars",
      "vote_average":6.5,
      "overview":"Story of a salesman lured into the \"hot car\" racket.",
      "release_date":"1956-01-01"
    },
    {
      "popularity":3.776,
      "vote_count":15,
      "video":false,
      "poster_path":"/5HzAcQUp9EjZNRLYfgOpOS7tJgd.jpg",
      "id":230767,
      "adult":false,
      "backdrop_path":"/AhmDvntNwQ77850j72BO1xenswR.jpg",
      "original_language":"en",
      "original_title":"Cars Toons: Tales from Radiator Springs - Hiccups",
      "genre_ids":[
        16
      ],
      "title":"Cars Toons: Tales from Radiator Springs - Hiccups",
      "vote_average":6.2,
      "overview":"Lightning McQueen gets hiccups and the residents of Radiator Springs give him advice on how to cure them.",
      "release_date":"2013-03-22"
    },
    {
      "popularity":1.729,
      "id":324260,
      "video":false,
      "vote_count":12,
      "vote_average":7.3,
      "title":"Bikes vs Cars",
      "release_date":"2015-03-15",
      "original_language":"en",
      "original_title":"Bikes vs Cars",
      "genre_ids":[
        99
      ],
      "backdrop_path":null,
      "adult":false,
      "overview":"Bikes vs Cars depicts a global crisis that we all deep down know we need to talk about: Climate, earth's resources, cities where the entire surface is consumed by the car. An ever-growing, dirty, noisy traffic chaos. The bike is a great tool for change, but the powerful interests who gain from the private car invest billions each year on lobbying and advertising to protect their business. In the film we meet activists and thinkers who are fighting for better cities, who refuse to stop riding despite the increasing number killed in traffic.",
      "poster_path":"/rQsEzkCyYxyO87Q1cypvm1lKAZA.jpg"
    },
    {
      "popularity":2.864,
      "vote_count":37,
      "video":false,
      "poster_path":"/yO2feh3pNEKNJ8Br25lanMDMlJP.jpg",
      "id":62761,
      "adult":false,
      "backdrop_path":"/LhNAYzoYqJssVojll2eyKLonu6.jpg",
      "original_language":"en",
      "original_title":"The Cars That Ate Paris",
      "genre_ids":[
        35,
        27,
        9648,
        53
      ],
      "title":"The Cars That Ate Paris",
      "vote_average":5.2,
      "overview":"After the death of his brother on the road, unemployed and unstable drifter Arthur Waldo stays for a while in the rural Australian town of Paris as the guest of the mayor, who hopes he will become a permanent member of the Paris population. Arthur soon realizes the quaint hamlet has a sinister secret: they orchestrate car accidents and rob the victims. Survivors are brought to the local hospital, lobotomized, and used for a local doctor's experiments.",
      "release_date":"1974-10-10"
    },
    {
      "popularity":1.835,
      "id":150178,
      "video":false,
      "vote_count":1,
      "vote_average":9,
      "title":"Clarkson: Unleashed on Cars",
      "release_date":"1996-10-21",
      "original_language":"en",
      "original_title":"Clarkson: Unleashed on Cars",
      "genre_ids":[
        99
      ],
      "backdrop_path":"/h3spLa9LFwfJbowtvuLSHeNSbow.jpg",
      "adult":false,
      "overview":"Jeremy Clarkson drives a wide range of vehicles as he attempts to find the \"best car, in the world, ever.\"",
      "poster_path":"/nJpAlOC5M20qDx7eTxUTiThwcEw.jpg"
    },
    {
      "popularity":0.953,
      "vote_count":3,
      "video":false,
      "poster_path":"/xtkCzg44iOEMBAwq3eACKCU1gHR.jpg",
      "id":248847,
      "adult":false,
      "backdrop_path":null,
      "original_language":"en",
      "original_title":"Stone Cars",
      "genre_ids":[
        18
      ],
      "title":"Stone Cars",
      "vote_average":6,
      "overview":"A teenage girl growing up in dangerous Khayelitsha township is faced with a difficult decision in the wake of a traumatic event. Olwethu Anita April and Lungisani Dyalvani star in this short film.",
      "release_date":"2014-05-23"
    },
    {
      "popularity":2.518,
      "id":296137,
      "video":false,
      "vote_count":16,
      "vote_average":6,
      "title":"Cars Toons: Tales from Radiator Springs - Spinning",
      "release_date":"2013-03-22",
      "original_language":"en",
      "original_title":"Cars Toons: Tales from Radiator Springs - Spinning",
      "genre_ids":[
        16
      ],
      "backdrop_path":"/v7LNKpGY8rvwSzFfTqtCBf41kXV.jpg",
      "adult":false,
      "overview":"Spinning is the third Cars Toons: Tales from Radiator Springs. Guido was holding a sign in front of Luigi's Casa Della Tires to get customers to come to the shop. Then Luigi comes and tells Guido to shake the sign, and goes back into the shop. Guido shakes the sign, then starts getting fancy with the shaking, and even spins the tip on his fork. Lightning notices Guido and tells everyone to check out what he's doing. Soon, a lot of cars were there to see Guido. Guido starts dancing with the sign, while DJ plays some music. At the end, Guido tosses the sign high into the sky, and catches it while balancing on two tires and says, \"Pit stop.\" Everyone cheers and drives away. Guido daydreams about his dancing, until Luigi, who hasn't watched Guido dance with the sign, comes back out and tells him to shake the sign. The short ends with an iris going on Guido shaking the sign.",
      "poster_path":"/p4z5ji2e6N7PeF7VjHPd1F7V0Mt.jpg"
    },
    {
      "popularity":0.6,
      "id":623991,
      "video":false,
      "vote_count":0,
      "vote_average":0,
      "title":"Li'l Cars",
      "release_date":"2018-08-19",
      "original_language":"en",
      "original_title":"Li'l Cars",
      "genre_ids":[
        18
      ],
      "backdrop_path":null,
      "adult":false,
      "overview":"A women loses her child and enlists the help of a psychic to contact him through his toys cars. Spooky stuff happens when the cars are put in order.",
      "poster_path":"/6JKvNA2nSY8vSR4ChBcAiBeObk8.jpg"
    },
    {
      "popularity":0.6,
      "id":485621,
      "video":false,
      "vote_count":0,
      "vote_average":0,
      "title":"Cars D'oeuvres",
      "release_date":"2017-11-07",
      "original_language":"en",
      "original_title":"Cars D'oeuvres",
      "genre_ids":[

      ],
      "backdrop_path":null,
      "adult":false,
      "overview":"Characters from Pixar's Cars 3 participate in goofy antics.",
      "poster_path":"/ppqxzUP0XmllXD8bQGmggY6hCEL.jpg"
    },
    {
      "popularity":0.6,
      "id":477633,
      "video":true,
      "vote_count":0,
      "vote_average":0,
      "title":"Cars - Hook International",
      "release_date":"2007-09-24",
      "original_language":"de",
      "original_title":"Cars - Hook International",
      "genre_ids":[

      ],
      "backdrop_path":null,
      "adult":false,
      "overview":"",
      "poster_path":null
    },
    {
      "popularity":0.6,
      "id":392485,
      "video":false,
      "vote_count":0,
      "vote_average":0,
      "title":"Trains and Cars",
      "release_date":"",
      "original_language":"en",
      "original_title":"Trains and Cars",
      "genre_ids":[

      ],
      "backdrop_path":null,
      "adult":false,
      "overview":"A compilation of Ozu's shot of trains and cars selected from his filmography from 1928-1962",
      "poster_path":null
    }
  ]
}
